data/self_beating/5 mhz_000_NoData.csv

Model,MSO24
Label,
Waveform Type,ANALOG
Horizontal Units,s
Sample Interval,4.00000000e-10
Record Length,50000
Zero Index,24999.50000000
Vertical Units,V

Labels,
TIME,CH1
-9.99980000e-06,1.06460000e-02
-9.99940000e-06,1.06460000e-02
-9.99900000e-06,1.06460000e-02
-9.99860000e-06,1.06460000e-02
-9.99820000e-06,1.08180000e-02
-9.99780000e-06,1.08180000e-02
-9.99740000e-06,1.08180000e-02
-9.99700000e-06,1.06460000e-02
-9.99660000e-06,1.06460000e-02
-9.99620000e-06,1.04740000e-02
-9.99580000e-06,1.04740000e-02
-9.99540000e-06,1.04740000e-02
-9.99500000e-06,1.06460000e-02
-9.99460000e-06,1.06460000e-02
-9.99420000e-06,1.08180000e-02
-9.99380000e-06,1.09900000e-02
-9.99340000e-06,1.09900000e-02
-9.99300000e-06,1.09900000e-02
-9.99260000e-06,1.09900000e-02
-9.99220000e-06,1.08180000e-02
-9.99180000e-06,1.08180000e-02
-9.99140000e-06,1.08180000e-02
-9.99100000e-06,1.08180000e-02
-9.99060000e-06,1.06460000e-02
-9.99020000e-06,1.06460000e-02
-9.98980000e-06,1.06460000e-02
-9.98940000e-06,1.08180000e-02
-9.98900000e-06,1.08180000e-02
-9.98860000e-06,1.09900000e-02
-9.98820000e-06,1.09900000e-02
-9.98780000e-06,1.09900000e-02
-9.98740000e-06,1.09900000e-02
-9.98700000e-06,1.09900000e-02
-9.98660000e-06,1.08180000e-02
-9.98620000e-06,1.08180000e-02
-9.98580000e-06,1.06460000e-02
-9.98540000e-06,1.06460000e-02
-9.98500000e-06,1.06460000e-02
-9.98460000e-06,1.06460000e-02
-9.98420000e-06,1.06460000e-02
-9.98380000e-06,1.06460000e-02
-9.98340000e-06,1.06460000e-02
-9.98300000e-06,1.06460000e-02
-9.98260000e-06,1.06460000e-02
-9.98220000e-06,1.06460000e-02
-9.98180000e-06,1.06460000e-02
-9.98140000e-06,1.06460000e-02
-9.98100000e-06,1.06460000e-02
-9.98060000e-06,1.06460000e-02
-9.98020000e-06,1.08180000e-02
-9.97980000e-06,1.08180000e-02
-9.97940000e-06,1.06460000e-02
-9.97900000e-06,1.06460000e-02
-9.97860000e-06,1.04740000e-02
-9.97820000e-06,1.03020000e-02
-9.97780000e-06,1.03020000e-02
-9.97740000e-06,1.03020000e-02
-9.97700000e-06,1.03020000e-02
-9.97660000e-06,1.03020000e-02
-9.97620000e-06,1.03020000e-02
-9.97580000e-06,1.03020000e-02
-9.97540000e-06,1.03020000e-02
-9.97500000e-06,1.04740000e-02
-9.97460000e-06,1.04740000e-02
-9.97420000e-06,1.06460000e-02
-9.97380000e-06,1.06460000e-02
-9.97340000e-06,1.08180000e-02
-9.97300000e-06,1.08180000e-02
-9.97260000e-06,1.08180000e-02
-9.97220000e-06,1.08180000e-02
-9.97180000e-06,1.08180000e-02
-9.97140000e-06,1.08180000e-02
-9.97100000e-06,1.09900000e-02
-9.97060000e-06,1.09900000e-02
-9.97020000e-06,1.09900000e-02
-9.96980000e-06,1.09900000e-02
-9.96940000e-06,1.09900000e-02
-9.96900000e-06,1.08180000e-02
-9.96860000e-06,1.08180000e-02
-9.96820000e-06,1.09900000e-02
-9.96780000e-06,1.09900000e-02
-9.96740000e-06,1.09900000e-02
-9.96700000e-06,1.08180000e-02
-9.96660000e-06,1.08180000e-02
-9.96620000e-06,1.06460000e-02
-9.96580000e-06,1.06460000e-02
-9.96540000e-06,1.06460000e-02
-9.96500000e-06,1.06460000e-02
-9.96460000e-06,1.08180000e-02
-9.96420000e-06,1.09900000e-02
-9.96380000e-06,1.09900000e-02
-9.96340000e-06,1.09900000e-02
-9.96300000e-06,1.09900000e-02
-9.96260000e-06,1.11620000e-02
-9.96220000e-06,1.11620000e-02
-9.96180000e-06,1.11620000e-02
-9.96140000e-06,1.11620000e-02
-9.96100000e-06,1.09900000e-02
-9.96060000e-06,1.09900000e-02
-9.96020000e-06,1.09900000e-02
-9.95980000e-06,1.09900000e-02
-9.95940000e-06,1.09900000e-02
-9.95900000e-06,1.09900000e-02
-9.95860000e-06,1.09900000e-02
-9.95820000e-06,1.09900000e-02
-9.95780000e-06,1.09900000e-02
-9.95740000e-06,1.09900000e-02
-9.95700000e-06,1.11620000e-02
-9.95660000e-06,1.11620000e-02
-9.95620000e-06,1.13340000e-02
-9.95580000e-06,1.13340000e-02
-9.95540000e-06,1.13340000e-02
-9.95500000e-06,1.11620000e-02
-9.95460000e-06,1.11620000e-02
-9.95420000e-06,1.09900000e-02
-9.95380000e-06,1.09900000e-02
-9.95340000e-06,1.09900000e-02
-9.95300000e-06,1.11620000e-02
-9.95260000e-06,1.11620000e-02
-9.95220000e-06,1.11620000e-02
-9.95180000e-06,1.11620000e-02
-9.95140000e-06,1.09900000e-02
-9.95100000e-06,1.09900000e-02
-9.95060000e-06,1.08180000e-02
-9.95020000e-06,1.08180000e-02
-9.94980000e-06,1.08180000e-02
-9.94940000e-06,1.08180000e-02
-9.94900000e-06,1.08180000e-02
-9.94860000e-06,1.09900000e-02
-9.94820000e-06,1.09900000e-02
-9.94780000e-06,1.09900000e-02
-9.94740000e-06,1.09900000e-02
-9.94700000e-06,1.08180000e-02
-9.94660000e-06,1.06460000e-02
-9.94620000e-06,1.04740000e-02
-9.94580000e-06,1.03020000e-02
-9.94540000e-06,1.03020000e-02
-9.94500000e-06,1.03020000e-02
-9.94460000e-06,1.03020000e-02
-9.94420000e-06,1.03020000e-02
-9.94380000e-06,1.03020000e-02
-9.94340000e-06,1.03020000e-02
-9.94300000e-06,1.04740000e-02
-9.94260000e-06,1.04740000e-02
-9.94220000e-06,1.06460000e-02
-9.94180000e-06,1.06460000e-02
-9.94140000e-06,1.08180000e-02
-9.94100000e-06,1.08180000e-02
-9.94060000e-06,1.08180000e-02
-9.94020000e-06,1.08180000e-02
-9.93980000e-06,1.08180000e-02
-9.93940000e-06,1.06460000e-02
-9.93900000e-06,1.06460000e-02
-9.93860000e-06,1.04740000e-02
-9.93820000e-06,1.04740000e-02
-9.93780000e-06,1.03020000e-02
-9.93740000e-06,1.03020000e-02
-9.93700000e-06,1.03020000e-02
-9.93660000e-06,1.01300000e-02
-9.93620000e-06,1.01300000e-02
-9.93580000e-06,1.01300000e-02
-9.93540000e-06,1.03020000e-02
-9.93500000e-06,1.03020000e-02
-9.93460000e-06,1.03020000e-02
-9.93420000e-06,1.01300000e-02
-9.93380000e-06,1.01300000e-02
-9.93340000e-06,9.95800000e-03
-9.93300000e-06,9.95800000e-03
-9.93260000e-06,9.95800000e-03
-9.93220000e-06,9.95800000e-03
-9.93180000e-06,1.01300000e-02
-9.93140000e-06,1.01300000e-02
-9.93100000e-06,1.03020000e-02
-9.93060000e-06,1.03020000e-02
-9.93020000e-06,1.03020000e-02
-9.92980000e-06,1.03020000e-02
-9.92940000e-06,1.04740000e-02
-9.92900000e-06,1.04740000e-02
-9.92860000e-06,1.04740000e-02
-9.92820000e-06,1.04740000e-02
-9.92780000e-06,1.04740000e-02
-9.92740000e-06,1.03020000e-02
-9.92700000e-06,1.03020000e-02
-9.92660000e-06,1.03020000e-02
-9.92620000e-06,1.03020000e-02
-9.92580000e-06,1.01300000e-02
-9.92540000e-06,1.01300000e-02
-9.92500000e-06,9.95800000e-03
-9.92460000e-06,1.01300000e-02
-9.92420000e-06,1.01300000e-02
-9.92380000e-06,1.03020000e-02
-9.92340000e-06,1.03020000e-02
-9.92300000e-06,1.04740000e-02
-9.92260000e-06,1.04740000e-02
-9.92220000e-06,1.04740000e-02
-9.92180000e-06,1.03020000e-02
-9.92140000e-06,1.03020000e-02
-9.92100000e-06,1.04740000e-02
-9.92060000e-06,1.04740000e-02
-9.92020000e-06,1.04740000e-02
-9.91980000e-06,1.04740000e-02
-9.91940000e-06,1.04740000e-02
-9.91900000e-06,1.04740000e-02
-9.91860000e-06,1.03020000e-02
-9.91820000e-06,1.03020000e-02
-9.91780000e-06,1.04740000e-02
-9.91740000e-06,1.04740000e-02
-9.91700000e-06,1.04740000e-02
-9.91660000e-06,1.04740000e-02
-9.91620000e-06,1.04740000e-02
-9.91580000e-06,1.04740000e-02
-9.91540000e-06,1.04740000e-02
-9.91500000e-06,1.06460000e-02
-9.91460000e-06,1.06460000e-02
-9.91420000e-06,1.06460000e-02
-9.91380000e-06,1.06460000e-02
-9.91340000e-06,1.08180000e-02
-9.91300000e-06,1.08180000e-02
-9.91260000e-06,1.08180000e-02
-9.91220000e-06,1.08180000e-02
-9.91180000e-06,1.06460000e-02
-9.91140000e-06,1.04740000e-02
-9.91100000e-06,1.04740000e-02
-9.91060000e-06,1.04740000e-02
-9.91020000e-06,1.06460000e-02
-9.90980000e-06,1.08180000e-02
-9.90940000e-06,1.08180000e-02
-9.90900000e-06,1.09900000e-02
-9.90860000e-06,1.08180000e-02
-9.90820000e-06,1.08180000e-02
-9.90780000e-06,1.06460000e-02
-9.90740000e-06,1.06460000e-02
-9.90700000e-06,1.06460000e-02
-9.90660000e-06,1.06460000e-02
-9.90620000e-06,1.06460000e-02
-9.90580000e-06,1.06460000e-02
-9.90540000e-06,1.08180000e-02
-9.90500000e-06,1.08180000e-02
-9.90460000e-06,1.09900000e-02
-9.90420000e-06,1.09900000e-02
-9.90380000e-06,1.11620000e-02
-9.90340000e-06,1.13340000e-02
-9.90300000e-06,1.13340000e-02
-9.90260000e-06,1.13340000e-02
-9.90220000e-06,1.13340000e-02
-9.90180000e-06,1.13340000e-02
-9.90140000e-06,1.13340000e-02
-9.90100000e-06,1.13340000e-02
-9.90060000e-06,1.13340000e-02
-9.90020000e-06,1.11620000e-02
-9.89980000e-06,1.11620000e-02
-9.89940000e-06,1.11620000e-02
-9.89900000e-06,1.11620000e-02
-9.89860000e-06,1.11620000e-02
-9.89820000e-06,1.11620000e-02
-9.89780000e-06,1.11620000e-02
-9.89740000e-06,1.11620000e-02
-9.89700000e-06,1.11620000e-02
-9.89660000e-06,1.11620000e-02
-9.89620000e-06,1.11620000e-02
-9.89580000e-06,1.11620000e-02
-9.89540000e-06,1.11620000e-02
-9.89500000e-06,1.13340000e-02
-9.89460000e-06,1.13340000e-02
-9.89420000e-06,1.15060000e-02
-9.89380000e-06,1.13340000e-02
-9.89340000e-06,1.13340000e-02
-9.89300000e-06,1.11620000e-02
-9.89260000e-06,1.11620000e-02
-9.89220000e-06,1.09900000e-02
-9.89180000e-06,1.09900000e-02
-9.89140000e-06,1.09900000e-02
-9.89100000e-06,1.11620000e-02
-9.89060000e-06,1.11620000e-02
-9.89020000e-06,1.11620000e-02
-9.88980000e-06,1.11620000e-02
-9.88940000e-06,1.13340000e-02
-9.88900000e-06,1.13340000e-02
-9.88860000e-06,1.13340000e-02
-9.88820000e-06,1.13340000e-02
-9.88780000e-06,1.13340000e-02
-9.88740000e-06,1.13340000e-02
-9.88700000e-06,1.13340000e-02
-9.88660000e-06,1.13340000e-02
-9.88620000e-06,1.13340000e-02
-9.88580000e-06,1.11620000e-02
-9.88540000e-06,1.11620000e-02
-9.88500000e-06,1.11620000e-02
-9.88460000e-06,1.11620000e-02
-9.88420000e-06,1.09900000e-02
-9.88380000e-06,1.09900000e-02
-9.88340000e-06,1.09900000e-02
-9.88300000e-06,1.09900000e-02
-9.88260000e-06,1.09900000e-02
-9.88220000e-06,1.11620000e-02
-9.88180000e-06,1.11620000e-02
-9.88140000e-06,1.11620000e-02
-9.88100000e-06,1.11620000e-02
-9.88060000e-06,1.11620000e-02
-9.88020000e-06,1.11620000e-02
-9.87980000e-06,1.11620000e-02
-9.87940000e-06,1.11620000e-02
-9.87900000e-06,1.11620000e-02
-9.87860000e-06,1.13340000e-02
-9.87820000e-06,1.13340000e-02
-9.87780000e-06,1.13340000e-02
-9.87740000e-06,1.13340000e-02
-9.87700000e-06,1.11620000e-02
-9.87660000e-06,1.11620000e-02
-9.87620000e-06,1.11620000e-02
-9.87580000e-06,1.11620000e-02
-9.87540000e-06,1.11620000e-02
-9.87500000e-06,1.11620000e-02
-9.87460000e-06,1.11620000e-02
-9.87420000e-06,1.11620000e-02
-9.87380000e-06,1.13340000e-02
-9.87340000e-06,1.13340000e-02
-9.87300000e-06,1.13340000e-02
-9.87260000e-06,1.11620000e-02
-9.87220000e-06,1.11620000e-02
-9.87180000e-06,1.09900000e-02
-9.87140000e-06,1.09900000e-02
-9.87100000e-06,1.08180000e-02
-9.87060000e-06,1.08180000e-02
-9.87020000e-06,1.08180000e-02
-9.86980000e-06,1.08180000e-02
-9.86940000e-06,1.08180000e-02
-9.86900000e-06,1.08180000e-02
-9.86860000e-06,1.08180000e-02
-9.86820000e-06,1.09900000e-02
-9.86780000e-06,1.09900000e-02
-9.86740000e-06,1.09900000e-02
-9.86700000e-06,1.08180000e-02
-9.86660000e-06,1.08180000e-02
-9.86620000e-06,1.08180000e-02
-9.86580000e-06,1.09900000e-02
-9.86540000e-06,1.09900000e-02
-9.86500000e-06,1.09900000e-02
-9.86460000e-06,1.09900000e-02
-9.86420000e-06,1.09900000e-02
-9.86380000e-06,1.08180000e-02
-9.86340000e-06,1.06460000e-02
-9.86300000e-06,1.06460000e-02
-9.86260000e-06,1.06460000e-02
-9.86220000e-06,1.08180000e-02
-9.86180000e-06,1.08180000e-02
-9.86140000e-06,1.08180000e-02
-9.86100000e-06,1.08180000e-02
-9.86060000e-06,1.08180000e-02
-9.86020000e-06,1.06460000e-02
-9.85980000e-06,1.06460000e-02
-9.85940000e-06,1.06460000e-02
-9.85900000e-06,1.06460000e-02
-9.85860000e-06,1.08180000e-02
-9.85820000e-06,1.08180000e-02
-9.85780000e-06,1.08180000e-02
-9.85740000e-06,1.08180000e-02
-9.85700000e-06,1.06460000e-02
-9.85660000e-06,1.04740000e-02
-9.85620000e-06,1.04740000e-02
-9.85580000e-06,1.06460000e-02
-9.85540000e-06,1.06460000e-02
-9.85500000e-06,1.08180000e-02
-9.85460000e-06,1.09900000e-02
-9.85420000e-06,1.11620000e-02
-9.85380000e-06,1.11620000e-02
-9.85340000e-06,1.13340000e-02
-9.85300000e-06,1.13340000e-02
-9.85260000e-06,1.11620000e-02
-9.85220000e-06,1.09900000e-02
-9.85180000e-06,1.08180000e-02
-9.85140000e-06,1.08180000e-02
-9.85100000e-06,1.08180000e-02
-9.85060000e-06,1.09900000e-02
-9.85020000e-06,1.11620000e-02
-9.84980000e-06,1.13340000e-02
-9.84940000e-06,1.11620000e-02
-9.84900000e-06,1.09900000e-02
-9.84860000e-06,1.08180000e-02
-9.84820000e-06,1.06460000e-02
-9.84780000e-06,1.06460000e-02
-9.84740000e-06,1.06460000e-02
-9.84700000e-06,1.06460000e-02
-9.84660000e-06,1.06460000e-02
-9.84620000e-06,1.06460000e-02
-9.84580000e-06,1.06460000e-02
-9.84540000e-06,1.06460000e-02
-9.84500000e-06,1.04740000e-02
-9.84460000e-06,1.04740000e-02
-9.84420000e-06,1.03020000e-02
-9.84380000e-06,1.03020000e-02
-9.84340000e-06,1.04740000e-02
-9.84300000e-06,1.04740000e-02
-9.84260000e-06,1.04740000e-02
-9.84220000e-06,1.04740000e-02
-9.84180000e-06,1.04740000e-02
-9.84140000e-06,1.04740000e-02
-9.84100000e-06,1.03020000e-02
-9.84060000e-06,1.03020000e-02
-9.84020000e-06,1.03020000e-02
-9.83980000e-06,1.03020000e-02
-9.83940000e-06,1.03020000e-02
-9.83900000e-06,1.03020000e-02
-9.83860000e-06,1.03020000e-02
-9.83820000e-06,1.03020000e-02
-9.83780000e-06,1.03020000e-02
-9.83740000e-06,1.03020000e-02
-9.83700000e-06,1.03020000e-02
-9.83660000e-06,1.03020000e-02
-9.83620000e-06,1.03020000e-02
-9.83580000e-06,1.03020000e-02
-9.83540000e-06,1.03020000e-02
-9.83500000e-06,1.04740000e-02
-9.83460000e-06,1.06460000e-02
-9.83420000e-06,1.06460000e-02
-9.83380000e-06,1.06460000e-02
-9.83340000e-06,1.08180000e-02
-9.83300000e-06,1.08180000e-02
-9.83260000e-06,1.09900000e-02
-9.83220000e-06,1.09900000e-02
-9.83180000e-06,1.09900000e-02
-9.83140000e-06,1.11620000e-02
-9.83100000e-06,1.11620000e-02
-9.83060000e-06,1.09900000e-02
-9.83020000e-06,1.09900000e-02
-9.82980000e-06,1.08180000e-02
-9.82940000e-06,1.08180000e-02
-9.82900000e-06,1.08180000e-02
-9.82860000e-06,1.08180000e-02
-9.82820000e-06,1.08180000e-02
-9.82780000e-06,1.08180000e-02
-9.82740000e-06,1.08180000e-02
-9.82700000e-06,1.08180000e-02
-9.82660000e-06,1.08180000e-02
-9.82620000e-06,1.08180000e-02
-9.82580000e-06,1.08180000e-02
-9.82540000e-06,1.08180000e-02
-9.82500000e-06,1.08180000e-02
-9.82460000e-06,1.06460000e-02
-9.82420000e-06,1.04740000e-02
-9.82380000e-06,1.03020000e-02
-9.82340000e-06,1.01300000e-02
-9.82300000e-06,1.01300000e-02
-9.82260000e-06,1.01300000e-02
-9.82220000e-06,1.03020000e-02
-9.82180000e-06,1.03020000e-02
-9.82140000e-06,1.04740000e-02
-9.82100000e-06,1.04740000e-02
-9.82060000e-06,1.03020000e-02
-9.82020000e-06,1.03020000e-02
-9.81980000e-06,1.03020000e-02
-9.81940000e-06,1.03020000e-02
-9.81900000e-06,1.03020000e-02
-9.81860000e-06,1.04740000e-02
-9.81820000e-06,1.04740000e-02
-9.81780000e-06,1.04740000e-02
-9.81740000e-06,1.04740000e-02
-9.81700000e-06,1.04740000e-02
-9.81660000e-06,1.04740000e-02
-9.81620000e-06,1.03020000e-02
-9.81580000e-06,1.03020000e-02
-9.81540000e-06,1.01300000e-02
-9.81500000e-06,1.01300000e-02
-9.81460000e-06,1.01300000e-02
-9.81420000e-06,1.01300000e-02
-9.81380000e-06,1.03020000e-02
-9.81340000e-06,1.03020000e-02
-9.81300000e-06,1.03020000e-02
-9.81260000e-06,1.03020000e-02
-9.81220000e-06,1.01300000e-02
-9.81180000e-06,1.01300000e-02
-9.81140000e-06,1.01300000e-02
-9.81100000e-06,9.95800000e-03
-9.81060000e-06,9.95800000e-03
-9.81020000e-06,9.95800000e-03
-9.80980000e-06,9.95800000e-03
-9.80940000e-06,9.95800000e-03
-9.80900000e-06,9.95800000e-03
-9.80860000e-06,9.95800000e-03
-9.80820000e-06,1.01300000e-02
-9.80780000e-06,1.01300000e-02
-9.80740000e-06,1.03020000e-02
-9.80700000e-06,1.03020000e-02
-9.80660000e-06,1.03020000e-02
-9.80620000e-06,1.04740000e-02
-9.80580000e-06,1.04740000e-02
-9.80540000e-06,1.04740000e-02
-9.80500000e-06,1.04740000e-02
-9.80460000e-06,1.04740000e-02
-9.80420000e-06,1.04740000e-02
-9.80380000e-06,1.06460000e-02
-9.80340000e-06,1.06460000e-02
-9.80300000e-06,1.06460000e-02
-9.80260000e-06,1.06460000e-02
-9.80220000e-06,1.08180000e-02
-9.80180000e-06,1.06460000e-02
-9.80140000e-06,1.06460000e-02
-9.80100000e-06,1.06460000e-02
-9.80060000e-06,1.06460000e-02
-9.80020000e-06,1.06460000e-02
-9.79980000e-06,1.06460000e-02
-9.79940000e-06,1.06460000e-02
-9.79900000e-06,1.06460000e-02
-9.79860000e-06,1.04740000e-02
-9.79820000e-06,1.03020000e-02
-9.79780000e-06,1.03020000e-02
-9.79740000e-06,1.01300000e-02
-9.79700000e-06,1.01300000e-02
-9.79660000e-06,1.01300000e-02
-9.79620000e-06,1.01300000e-02
-9.79580000e-06,1.03020000e-02
-9.79540000e-06,1.03020000e-02
-9.79500000e-06,1.04740000e-02
-9.79460000e-06,1.04740000e-02
-9.79420000e-06,1.04740000e-02
-9.79380000e-06,1.03020000e-02
-9.79340000e-06,1.03020000e-02
-9.79300000e-06,1.03020000e-02
-9.79260000e-06,1.03020000e-02
-9.79220000e-06,1.03020000e-02
-9.79180000e-06,1.03020000e-02
-9.79140000e-06,1.04740000e-02
-9.79100000e-06,1.04740000e-02
-9.79060000e-06,1.04740000e-02
-9.79020000e-06,1.04740000e-02
-9.78980000e-06,1.04740000e-02
-9.78940000e-06,1.04740000e-02
-9.78900000e-06,1.06460000e-02
-9.78860000e-06,1.06460000e-02
-9.78820000e-06,1.08180000e-02
-9.78780000e-06,1.08180000e-02
-9.78740000e-06,1.08180000e-02
-9.78700000e-06,1.08180000e-02
-9.78660000e-06,1.06460000e-02
-9.78620000e-06,1.04740000e-02
-9.78580000e-06,1.03020000e-02
-9.78540000e-06,1.03020000e-02
-9.78500000e-06,1.03020000e-02
-9.78460000e-06,1.03020000e-02
-9.78420000e-06,1.03020000e-02
-9.78380000e-06,1.03020000e-02
-9.78340000e-06,1.03020000e-02
-9.78300000e-06,1.03020000e-02
-9.78260000e-06,1.03020000e-02
-9.78220000e-06,1.03020000e-02
-9.78180000e-06,1.03020000e-02
-9.78140000e-06,1.03020000e-02
-9.78100000e-06,1.03020000e-02
-9.78060000e-06,1.03020000e-02
-9.78020000e-06,1.01300000e-02
-9.77980000e-06,1.01300000e-02
-9.77940000e-06,1.01300000e-02
-9.77900000e-06,1.03020000e-02
-9.77860000e-06,1.03020000e-02
-9.77820000e-06,1.03020000e-02
-9.77780000e-06,1.04740000e-02
-9.77740000e-06,1.04740000e-02
-9.77700000e-06,1.03020000e-02
-9.77660000e-06,1.03020000e-02
-9.77620000e-06,1.03020000e-02
-9.77580000e-06,1.01300000e-02
-9.77540000e-06,1.01300000e-02
-9.77500000e-06,1.01300000e-02
-9.77460000e-06,1.01300000e-02
-9.77420000e-06,1.01300000e-02
-9.77380000e-06,1.03020000e-02
-9.77340000e-06,1.03020000e-02
-9.77300000e-06,1.04740000e-02
-9.77260000e-06,1.04740000e-02
-9.77220000e-06,1.04740000e-02
-9.77180000e-06,1.06460000e-02
-9.77140000e-06,1.06460000e-02
-9.77100000e-06,1.06460000e-02
-9.77060000e-06,1.08180000e-02
-9.77020000e-06,1.08180000e-02
-9.76980000e-06,1.08180000e-02
-9.76940000e-06,1.08180000e-02
-9.76900000e-06,1.08180000e-02
-9.76860000e-06,1.08180000e-02
-9.76820000e-06,1.08180000e-02
-9.76780000e-06,1.06460000e-02
-9.76740000e-06,1.04740000e-02
-9.76700000e-06,1.04740000e-02
-9.76660000e-06,1.04740000e-02
-9.76620000e-06,1.04740000e-02
-9.76580000e-06,1.06460000e-02
-9.76540000e-06,1.06460000e-02
-9.76500000e-06,1.06460000e-02
-9.76460000e-06,1.06460000e-02
-9.76420000e-06,1.04740000e-02
-9.76380000e-06,1.04740000e-02
-9.76340000e-06,1.04740000e-02
-9.76300000e-06,1.04740000e-02
-9.76260000e-06,1.04740000e-02
-9.76220000e-06,1.06460000e-02
-9.76180000e-06,1.06460000e-02
-9.76140000e-06,1.06460000e-02
-9.76100000e-06,1.04740000e-02
-9.76060000e-06,1.04740000e-02
-9.76020000e-06,1.04740000e-02
-9.75980000e-06,1.04740000e-02
-9.75940000e-06,1.06460000e-02
-9.75900000e-06,1.08180000e-02
-9.75860000e-06,1.09900000e-02
-9.75820000e-06,1.09900000e-02
-9.75780000e-06,1.09900000e-02
-9.75740000e-06,1.08180000e-02
-9.75700000e-06,1.08180000e-02
-9.75660000e-06,1.08180000e-02
-9.75620000e-06,1.08180000e-02
-9.75580000e-06,1.08180000e-02
-9.75540000e-06,1.08180000e-02
-9.75500000e-06,1.08180000e-02
-9.75460000e-06,1.08180000e-02
-9.75420000e-06,1.06460000e-02
-9.75380000e-06,1.06460000e-02
-9.75340000e-06,1.06460000e-02
-9.75300000e-06,1.06460000e-02
-9.75260000e-06,1.08180000e-02
-9.75220000e-06,1.08180000e-02
-9.75180000e-06,1.08180000e-02
-9.75140000e-06,1.06460000e-02
-9.75100000e-06,1.06460000e-02
-9.75060000e-06,1.06460000e-02
-9.75020000e-06,1.06460000e-02
-9.74980000e-06,1.06460000e-02
-9.74940000e-06,1.06460000e-02
-9.74900000e-06,1.06460000e-02
-9.74860000e-06,1.06460000e-02
-9.74820000e-06,1.06460000e-02
-9.74780000e-06,1.06460000e-02
-9.74740000e-06,1.06460000e-02
-9.74700000e-06,1.06460000e-02
-9.74660000e-06,1.08180000e-02
-9.74620000e-06,1.08180000e-02
-9.74580000e-06,1.08180000e-02
-9.74540000e-06,1.08180000e-02
-9.74500000e-06,1.08180000e-02
-9.74460000e-06,1.09900000e-02
