data/self_beating/5 mhz_000.csv

Model,MSO24
Label,
Waveform Type,ANALOG
Horizontal Units,s
Sample Interval,4.00000000e-10
Record Length,50000
Zero Index,24999.00000000
Vertical Units,V

Labels,
TIME,CH1
-9.99960000e-06,2.04500000e-02
-9.99920000e-06,2.06220000e-02
-9.99880000e-06,2.07940000e-02
-9.99840000e-06,2.07940000e-02
-9.99800000e-06,2.09660000e-02
-9.99760000e-06,2.09660000e-02
-9.99720000e-06,2.09660000e-02
-9.99680000e-06,2.07940000e-02
-9.99640000e-06,2.07940000e-02
-9.99600000e-06,2.07940000e-02
-9.99560000e-06,2.07940000e-02
-9.99520000e-06,2.09660000e-02
-9.99480000e-06,2.11380000e-02
-9.99440000e-06,2.11380000e-02
-9.99400000e-06,2.11380000e-02
-9.99360000e-06,2.11380000e-02
-9.99320000e-06,2.11380000e-02
-9.99280000e-06,2.11380000e-02
-9.99240000e-06,2.09660000e-02
-9.99200000e-06,2.09660000e-02
-9.99160000e-06,2.09660000e-02
-9.99120000e-06,2.09660000e-02
-9.99080000e-06,2.09660000e-02
-9.99040000e-06,2.09660000e-02
-9.99000000e-06,2.09660000e-02
-9.98960000e-06,2.09660000e-02
-9.98920000e-06,2.09660000e-02
-9.98880000e-06,2.09660000e-02
-9.98840000e-06,2.09660000e-02
-9.98800000e-06,2.11380000e-02
-9.98760000e-06,2.11380000e-02
-9.98720000e-06,2.13100000e-02
-9.98680000e-06,2.13100000e-02
-9.98640000e-06,2.13100000e-02
-9.98600000e-06,2.13100000e-02
-9.98560000e-06,2.13100000e-02
-9.98520000e-06,2.13100000e-02
-9.98480000e-06,2.14820000e-02
-9.98440000e-06,2.14820000e-02
-9.98400000e-06,2.16540000e-02
-9.98360000e-06,2.16540000e-02
-9.98320000e-06,2.14820000e-02
-9.98280000e-06,2.14820000e-02
-9.98240000e-06,2.14820000e-02
-9.98200000e-06,2.13100000e-02
-9.98160000e-06,2.13100000e-02
-9.98120000e-06,2.13100000e-02
-9.98080000e-06,2.11380000e-02
-9.98040000e-06,2.09660000e-02
-9.98000000e-06,2.09660000e-02
-9.97960000e-06,2.09660000e-02
-9.97920000e-06,2.09660000e-02
-9.97880000e-06,2.11380000e-02
-9.97840000e-06,2.11380000e-02
-9.97800000e-06,2.11380000e-02
-9.97760000e-06,2.11380000e-02
-9.97720000e-06,2.09660000e-02
-9.97680000e-06,2.09660000e-02
-9.97640000e-06,2.07940000e-02
-9.97600000e-06,2.07940000e-02
-9.97560000e-06,2.06220000e-02
-9.97520000e-06,2.07940000e-02
-9.97480000e-06,2.07940000e-02
-9.97440000e-06,2.09660000e-02
-9.97400000e-06,2.11380000e-02
-9.97360000e-06,2.13100000e-02
-9.97320000e-06,2.13100000e-02
-9.97280000e-06,2.11380000e-02
-9.97240000e-06,2.11380000e-02
-9.97200000e-06,2.09660000e-02
-9.97160000e-06,2.09660000e-02
-9.97120000e-06,2.09660000e-02
-9.97080000e-06,2.11380000e-02
-9.97040000e-06,2.11380000e-02
-9.97000000e-06,2.11380000e-02
-9.96960000e-06,2.11380000e-02
-9.96920000e-06,2.09660000e-02
-9.96880000e-06,2.07940000e-02
-9.96840000e-06,2.07940000e-02
-9.96800000e-06,2.07940000e-02
-9.96760000e-06,2.07940000e-02
-9.96720000e-06,2.07940000e-02
-9.96680000e-06,2.07940000e-02
-9.96640000e-06,2.07940000e-02
-9.96600000e-06,2.07940000e-02
-9.96560000e-06,2.06220000e-02
-9.96520000e-06,2.06220000e-02
-9.96480000e-06,2.04500000e-02
-9.96440000e-06,2.04500000e-02
-9.96400000e-06,2.04500000e-02
-9.96360000e-06,2.06220000e-02
-9.96320000e-06,2.06220000e-02
-9.96280000e-06,2.06220000e-02
-9.96240000e-06,2.07940000e-02
-9.96200000e-06,2.06220000e-02
-9.96160000e-06,2.06220000e-02
-9.96120000e-06,2.06220000e-02
-9.96080000e-06,2.04500000e-02
-9.96040000e-06,2.04500000e-02
-9.96000000e-06,2.02780000e-02
-9.95960000e-06,2.02780000e-02
-9.95920000e-06,2.01060000e-02
-9.95880000e-06,2.01060000e-02
-9.95840000e-06,2.01060000e-02
-9.95800000e-06,2.01060000e-02
-9.95760000e-06,2.01060000e-02
-9.95720000e-06,2.01060000e-02
-9.95680000e-06,2.01060000e-02
-9.95640000e-06,2.01060000e-02
-9.95600000e-06,1.99340000e-02
-9.95560000e-06,1.97620000e-02
-9.95520000e-06,1.95900000e-02
-9.95480000e-06,1.94180000e-02
-9.95440000e-06,1.94180000e-02
-9.95400000e-06,1.94180000e-02
-9.95360000e-06,1.94180000e-02
-9.95320000e-06,1.95900000e-02
-9.95280000e-06,1.95900000e-02
-9.95240000e-06,1.95900000e-02
-9.95200000e-06,1.94180000e-02
-9.95160000e-06,1.94180000e-02
-9.95120000e-06,1.92460000e-02
-9.95080000e-06,1.90740000e-02
-9.95040000e-06,1.89020000e-02
-9.95000000e-06,1.87300000e-02
-9.94960000e-06,1.85580000e-02
-9.94920000e-06,1.83860000e-02
-9.94880000e-06,1.83860000e-02
-9.94840000e-06,1.83860000e-02
-9.94800000e-06,1.82140000e-02
-9.94760000e-06,1.82140000e-02
-9.94720000e-06,1.82140000e-02
-9.94680000e-06,1.82140000e-02
-9.94640000e-06,1.82140000e-02
-9.94600000e-06,1.80420000e-02
-9.94560000e-06,1.80420000e-02
-9.94520000e-06,1.78700000e-02
-9.94480000e-06,1.76980000e-02
-9.94440000e-06,1.75260000e-02
-9.94400000e-06,1.73540000e-02
-9.94360000e-06,1.71820000e-02
-9.94320000e-06,1.70100000e-02
-9.94280000e-06,1.70100000e-02
-9.94240000e-06,1.70100000e-02
-9.94200000e-06,1.70100000e-02
-9.94160000e-06,1.68380000e-02
-9.94120000e-06,1.66660000e-02
-9.94080000e-06,1.64940000e-02
-9.94040000e-06,1.63220000e-02
-9.94000000e-06,1.61500000e-02
-9.93960000e-06,1.61500000e-02
-9.93920000e-06,1.61500000e-02
-9.93880000e-06,1.59780000e-02
-9.93840000e-06,1.59780000e-02
-9.93800000e-06,1.59780000e-02
-9.93760000e-06,1.58060000e-02
-9.93720000e-06,1.58060000e-02
-9.93680000e-06,1.58060000e-02
-9.93640000e-06,1.58060000e-02
-9.93600000e-06,1.58060000e-02
-9.93560000e-06,1.58060000e-02
-9.93520000e-06,1.58060000e-02
-9.93480000e-06,1.56340000e-02
-9.93440000e-06,1.56340000e-02
-9.93400000e-06,1.56340000e-02
-9.93360000e-06,1.54620000e-02
-9.93320000e-06,1.54620000e-02
-9.93280000e-06,1.54620000e-02
-9.93240000e-06,1.54620000e-02
-9.93200000e-06,1.54620000e-02
-9.93160000e-06,1.54620000e-02
-9.93120000e-06,1.54620000e-02
-9.93080000e-06,1.52900000e-02
-9.93040000e-06,1.51180000e-02
-9.93000000e-06,1.49460000e-02
-9.92960000e-06,1.49460000e-02
-9.92920000e-06,1.47740000e-02
-9.92880000e-06,1.47740000e-02
-9.92840000e-06,1.46020000e-02
-9.92800000e-06,1.46020000e-02
-9.92760000e-06,1.44300000e-02
-9.92720000e-06,1.44300000e-02
-9.92680000e-06,1.42580000e-02
-9.92640000e-06,1.40860000e-02
-9.92600000e-06,1.39140000e-02
-9.92560000e-06,1.37420000e-02
-9.92520000e-06,1.35700000e-02
-9.92480000e-06,1.33980000e-02
-9.92440000e-06,1.33980000e-02
-9.92400000e-06,1.33980000e-02
-9.92360000e-06,1.33980000e-02
-9.92320000e-06,1.33980000e-02
-9.92280000e-06,1.33980000e-02
-9.92240000e-06,1.33980000e-02
-9.92200000e-06,1.32260000e-02
-9.92160000e-06,1.30540000e-02
-9.92120000e-06,1.27100000e-02
-9.92080000e-06,1.23660000e-02
-9.92040000e-06,1.20220000e-02
-9.92000000e-06,1.18500000e-02
-9.91960000e-06,1.18500000e-02
-9.91920000e-06,1.20220000e-02
-9.91880000e-06,1.21940000e-02
-9.91840000e-06,1.23660000e-02
-9.91800000e-06,1.23660000e-02
-9.91760000e-06,1.21940000e-02
-9.91720000e-06,1.20220000e-02
-9.91680000e-06,1.18500000e-02
-9.91640000e-06,1.16780000e-02
-9.91600000e-06,1.15060000e-02
-9.91560000e-06,1.13340000e-02
-9.91520000e-06,1.11620000e-02
-9.91480000e-06,1.09900000e-02
-9.91440000e-06,1.08180000e-02
-9.91400000e-06,1.06460000e-02
-9.91360000e-06,1.06460000e-02
-9.91320000e-06,1.04740000e-02
-9.91280000e-06,1.04740000e-02
-9.91240000e-06,1.04740000e-02
-9.91200000e-06,1.04740000e-02
-9.91160000e-06,1.04740000e-02
-9.91120000e-06,1.03020000e-02
-9.91080000e-06,1.03020000e-02
-9.91040000e-06,1.01300000e-02
-9.91000000e-06,9.95800000e-03
-9.90960000e-06,9.95800000e-03
-9.90920000e-06,9.95800000e-03
-9.90880000e-06,9.95800000e-03
-9.90840000e-06,9.95800000e-03
-9.90800000e-06,9.78600000e-03
-9.90760000e-06,9.78600000e-03
-9.90720000e-06,9.61400000e-03
-9.90680000e-06,9.61400000e-03
-9.90640000e-06,9.61400000e-03
-9.90600000e-06,9.78600000e-03
-9.90560000e-06,9.61400000e-03
-9.90520000e-06,9.61400000e-03
-9.90480000e-06,9.44200000e-03
-9.90440000e-06,9.44200000e-03
-9.90400000e-06,9.44200000e-03
-9.90360000e-06,9.44200000e-03
-9.90320000e-06,9.61400000e-03
-9.90280000e-06,9.61400000e-03
-9.90240000e-06,9.61400000e-03
-9.90200000e-06,9.44200000e-03
-9.90160000e-06,9.44200000e-03
-9.90120000e-06,9.27000000e-03
-9.90080000e-06,9.27000000e-03
-9.90040000e-06,9.27000000e-03
-9.90000000e-06,9.09800000e-03
-9.89960000e-06,9.09800000e-03
-9.89920000e-06,9.09800000e-03
-9.89880000e-06,8.92600000e-03
-9.89840000e-06,8.92600000e-03
-9.89800000e-06,8.75400000e-03
-9.89760000e-06,8.75400000e-03
-9.89720000e-06,8.58200000e-03
-9.89680000e-06,8.58200000e-03
-9.89640000e-06,8.58200000e-03
-9.89600000e-06,8.58200000e-03
-9.89560000e-06,8.58200000e-03
-9.89520000e-06,8.41000000e-03
-9.89480000e-06,8.41000000e-03
-9.89440000e-06,8.23800000e-03
-9.89400000e-06,8.23800000e-03
-9.89360000e-06,8.41000000e-03
-9.89320000e-06,8.58200000e-03
-9.89280000e-06,8.58200000e-03
-9.89240000e-06,8.58200000e-03
-9.89200000e-06,8.58200000e-03
-9.89160000e-06,8.41000000e-03
-9.89120000e-06,8.41000000e-03
-9.89080000e-06,8.41000000e-03
-9.89040000e-06,8.41000000e-03
-9.89000000e-06,8.41000000e-03
-9.88960000e-06,8.58200000e-03
-9.88920000e-06,8.58200000e-03
-9.88880000e-06,8.41000000e-03
-9.88840000e-06,8.23800000e-03
-9.88800000e-06,8.23800000e-03
-9.88760000e-06,8.06600000e-03
-9.88720000e-06,8.06600000e-03
-9.88680000e-06,8.06600000e-03
-9.88640000e-06,8.06600000e-03
-9.88600000e-06,8.06600000e-03
-9.88560000e-06,8.06600000e-03
-9.88520000e-06,8.06600000e-03
-9.88480000e-06,8.06600000e-03
-9.88440000e-06,8.06600000e-03
-9.88400000e-06,8.06600000e-03
-9.88360000e-06,8.06600000e-03
-9.88320000e-06,8.06600000e-03
-9.88280000e-06,8.06600000e-03
-9.88240000e-06,7.89400000e-03
-9.88200000e-06,7.89400000e-03
-9.88160000e-06,7.89400000e-03
-9.88120000e-06,7.72200000e-03
-9.88080000e-06,7.72200000e-03
-9.88040000e-06,7.89400000e-03
-9.88000000e-06,7.89400000e-03
-9.87960000e-06,7.89400000e-03
-9.87920000e-06,7.89400000e-03
-9.87880000e-06,7.89400000e-03
-9.87840000e-06,7.72200000e-03
-9.87800000e-06,7.72200000e-03
-9.87760000e-06,7.55000000e-03
-9.87720000e-06,7.55000000e-03
-9.87680000e-06,7.55000000e-03
-9.87640000e-06,7.55000000e-03
-9.87600000e-06,7.72200000e-03
-9.87560000e-06,7.72200000e-03
-9.87520000e-06,7.89400000e-03
-9.87480000e-06,7.89400000e-03
-9.87440000e-06,7.89400000e-03
-9.87400000e-06,7.89400000e-03
-9.87360000e-06,7.89400000e-03
-9.87320000e-06,8.06600000e-03
-9.87280000e-06,8.23800000e-03
-9.87240000e-06,8.41000000e-03
-9.87200000e-06,8.41000000e-03
-9.87160000e-06,8.58200000e-03
-9.87120000e-06,8.58200000e-03
-9.87080000e-06,8.58200000e-03
-9.87040000e-06,8.58200000e-03
-9.87000000e-06,8.58200000e-03
-9.86960000e-06,8.58200000e-03
-9.86920000e-06,8.58200000e-03
-9.86880000e-06,8.58200000e-03
-9.86840000e-06,8.75400000e-03
-9.86800000e-06,8.75400000e-03
-9.86760000e-06,8.92600000e-03
-9.86720000e-06,8.92600000e-03
-9.86680000e-06,8.92600000e-03
-9.86640000e-06,9.09800000e-03
-9.86600000e-06,9.09800000e-03
-9.86560000e-06,9.09800000e-03
-9.86520000e-06,9.09800000e-03
-9.86480000e-06,9.09800000e-03
-9.86440000e-06,9.27000000e-03
-9.86400000e-06,9.27000000e-03
-9.86360000e-06,9.44200000e-03
-9.86320000e-06,9.44200000e-03
-9.86280000e-06,9.61400000e-03
-9.86240000e-06,9.61400000e-03
-9.86200000e-06,9.61400000e-03
-9.86160000e-06,9.78600000e-03
-9.86120000e-06,9.78600000e-03
-9.86080000e-06,9.95800000e-03
-9.86040000e-06,9.95800000e-03
-9.86000000e-06,9.78600000e-03
-9.85960000e-06,9.78600000e-03
-9.85920000e-06,9.78600000e-03
-9.85880000e-06,9.95800000e-03
-9.85840000e-06,9.95800000e-03
-9.85800000e-06,1.01300000e-02
-9.85760000e-06,1.04740000e-02
-9.85720000e-06,1.06460000e-02
-9.85680000e-06,1.08180000e-02
-9.85640000e-06,1.08180000e-02
-9.85600000e-06,1.08180000e-02
-9.85560000e-06,1.08180000e-02
-9.85520000e-06,1.08180000e-02
-9.85480000e-06,1.09900000e-02
-9.85440000e-06,1.09900000e-02
-9.85400000e-06,1.09900000e-02
-9.85360000e-06,1.09900000e-02
-9.85320000e-06,1.11620000e-02
-9.85280000e-06,1.11620000e-02
-9.85240000e-06,1.11620000e-02
-9.85200000e-06,1.13340000e-02
-9.85160000e-06,1.13340000e-02
-9.85120000e-06,1.15060000e-02
-9.85080000e-06,1.16780000e-02
-9.85040000e-06,1.16780000e-02
-9.85000000e-06,1.18500000e-02
-9.84960000e-06,1.18500000e-02
-9.84920000e-06,1.20220000e-02
-9.84880000e-06,1.20220000e-02
-9.84840000e-06,1.21940000e-02
-9.84800000e-06,1.23660000e-02
-9.84760000e-06,1.23660000e-02
-9.84720000e-06,1.21940000e-02
-9.84680000e-06,1.21940000e-02
-9.84640000e-06,1.21940000e-02
-9.84600000e-06,1.21940000e-02
-9.84560000e-06,1.23660000e-02
-9.84520000e-06,1.25380000e-02
-9.84480000e-06,1.27100000e-02
-9.84440000e-06,1.28820000e-02
-9.84400000e-06,1.30540000e-02
-9.84360000e-06,1.30540000e-02
-9.84320000e-06,1.32260000e-02
-9.84280000e-06,1.33980000e-02
-9.84240000e-06,1.33980000e-02
-9.84200000e-06,1.35700000e-02
-9.84160000e-06,1.37420000e-02
-9.84120000e-06,1.37420000e-02
-9.84080000e-06,1.37420000e-02
-9.84040000e-06,1.37420000e-02
-9.84000000e-06,1.35700000e-02
-9.83960000e-06,1.35700000e-02
-9.83920000e-06,1.35700000e-02
-9.83880000e-06,1.37420000e-02
-9.83840000e-06,1.39140000e-02
-9.83800000e-06,1.42580000e-02
-9.83760000e-06,1.44300000e-02
-9.83720000e-06,1.47740000e-02
-9.83680000e-06,1.47740000e-02
-9.83640000e-06,1.49460000e-02
-9.83600000e-06,1.49460000e-02
-9.83560000e-06,1.49460000e-02
-9.83520000e-06,1.49460000e-02
-9.83480000e-06,1.49460000e-02
-9.83440000e-06,1.49460000e-02
-9.83400000e-06,1.51180000e-02
-9.83360000e-06,1.51180000e-02
-9.83320000e-06,1.52900000e-02
-9.83280000e-06,1.52900000e-02
-9.83240000e-06,1.54620000e-02
-9.83200000e-06,1.56340000e-02
-9.83160000e-06,1.58060000e-02
-9.83120000e-06,1.58060000e-02
-9.83080000e-06,1.59780000e-02
-9.83040000e-06,1.59780000e-02
-9.83000000e-06,1.59780000e-02
-9.82960000e-06,1.61500000e-02
-9.82920000e-06,1.61500000e-02
-9.82880000e-06,1.61500000e-02
-9.82840000e-06,1.61500000e-02
-9.82800000e-06,1.61500000e-02
-9.82760000e-06,1.63220000e-02
-9.82720000e-06,1.63220000e-02
-9.82680000e-06,1.63220000e-02
-9.82640000e-06,1.64940000e-02
-9.82600000e-06,1.66660000e-02
-9.82560000e-06,1.68380000e-02
-9.82520000e-06,1.70100000e-02
-9.82480000e-06,1.71820000e-02
-9.82440000e-06,1.73540000e-02
-9.82400000e-06,1.73540000e-02
-9.82360000e-06,1.73540000e-02
-9.82320000e-06,1.73540000e-02
-9.82280000e-06,1.75260000e-02
-9.82240000e-06,1.76980000e-02
-9.82200000e-06,1.76980000e-02
-9.82160000e-06,1.78700000e-02
-9.82120000e-06,1.78700000e-02
-9.82080000e-06,1.78700000e-02
-9.82040000e-06,1.78700000e-02
-9.82000000e-06,1.80420000e-02
-9.81960000e-06,1.80420000e-02
-9.81920000e-06,1.82140000e-02
-9.81880000e-06,1.83860000e-02
-9.81840000e-06,1.83860000e-02
-9.81800000e-06,1.85580000e-02
-9.81760000e-06,1.85580000e-02
-9.81720000e-06,1.85580000e-02
-9.81680000e-06,1.87300000e-02
-9.81640000e-06,1.87300000e-02
-9.81600000e-06,1.87300000e-02
-9.81560000e-06,1.87300000e-02
-9.81520000e-06,1.87300000e-02
-9.81480000e-06,1.87300000e-02
-9.81440000e-06,1.87300000e-02
-9.81400000e-06,1.87300000e-02
-9.81360000e-06,1.87300000e-02
-9.81320000e-06,1.90740000e-02
-9.81280000e-06,1.92460000e-02
-9.81240000e-06,1.94180000e-02
-9.81200000e-06,1.94180000e-02
-9.81160000e-06,1.94180000e-02
-9.81120000e-06,1.94180000e-02
-9.81080000e-06,1.92460000e-02
-9.81040000e-06,1.92460000e-02
-9.81000000e-06,1.92460000e-02
-9.80960000e-06,1.94180000e-02
-9.80920000e-06,1.94180000e-02
-9.80880000e-06,1.94180000e-02
-9.80840000e-06,1.94180000e-02
-9.80800000e-06,1.94180000e-02
-9.80760000e-06,1.95900000e-02
-9.80720000e-06,1.97620000e-02
-9.80680000e-06,1.99340000e-02
-9.80640000e-06,2.01060000e-02
-9.80600000e-06,2.01060000e-02
-9.80560000e-06,2.01060000e-02
-9.80520000e-06,1.99340000e-02
-9.80480000e-06,1.99340000e-02
-9.80440000e-06,1.99340000e-02
-9.80400000e-06,2.01060000e-02
-9.80360000e-06,2.02780000e-02
-9.80320000e-06,2.04500000e-02
-9.80280000e-06,2.04500000e-02
-9.80240000e-06,2.04500000e-02
-9.80200000e-06,2.04500000e-02
-9.80160000e-06,2.04500000e-02
-9.80120000e-06,2.02780000e-02
-9.80080000e-06,2.02780000e-02
-9.80040000e-06,2.02780000e-02
-9.80000000e-06,2.02780000e-02
-9.79960000e-06,2.02780000e-02
-9.79920000e-06,2.04500000e-02
-9.79880000e-06,2.06220000e-02
-9.79840000e-06,2.07940000e-02
-9.79800000e-06,2.09660000e-02
-9.79760000e-06,2.09660000e-02
-9.79720000e-06,2.09660000e-02
-9.79680000e-06,2.09660000e-02
-9.79640000e-06,2.09660000e-02
-9.79600000e-06,2.09660000e-02
-9.79560000e-06,2.09660000e-02
-9.79520000e-06,2.09660000e-02
-9.79480000e-06,2.09660000e-02
-9.79440000e-06,2.09660000e-02
-9.79400000e-06,2.11380000e-02
-9.79360000e-06,2.13100000e-02
-9.79320000e-06,2.14820000e-02
-9.79280000e-06,2.14820000e-02
-9.79240000e-06,2.16540000e-02
-9.79200000e-06,2.16540000e-02
-9.79160000e-06,2.16540000e-02
-9.79120000e-06,2.16540000e-02
-9.79080000e-06,2.18260000e-02
-9.79040000e-06,2.18260000e-02
-9.79000000e-06,2.18260000e-02
-9.78960000e-06,2.18260000e-02
-9.78920000e-06,2.16540000e-02
-9.78880000e-06,2.16540000e-02
-9.78840000e-06,2.14820000e-02
-9.78800000e-06,2.14820000e-02
-9.78760000e-06,2.14820000e-02
-9.78720000e-06,2.16540000e-02
-9.78680000e-06,2.18260000e-02
-9.78640000e-06,2.19980000e-02
-9.78600000e-06,2.19980000e-02
-9.78560000e-06,2.19980000e-02
-9.78520000e-06,2.19980000e-02
-9.78480000e-06,2.18260000e-02
-9.78440000e-06,2.18260000e-02
-9.78400000e-06,2.18260000e-02
-9.78360000e-06,2.18260000e-02
-9.78320000e-06,2.18260000e-02
-9.78280000e-06,2.18260000e-02
-9.78240000e-06,2.19980000e-02
-9.78200000e-06,2.19980000e-02
-9.78160000e-06,2.21700000e-02
-9.78120000e-06,2.21700000e-02
-9.78080000e-06,2.21700000e-02
-9.78040000e-06,2.19980000e-02
-9.78000000e-06,2.18260000e-02
-9.77960000e-06,2.16540000e-02
-9.77920000e-06,2.14820000e-02
-9.77880000e-06,2.14820000e-02
-9.77840000e-06,2.14820000e-02
-9.77800000e-06,2.14820000e-02
-9.77760000e-06,2.16540000e-02
-9.77720000e-06,2.18260000e-02
-9.77680000e-06,2.19980000e-02
-9.77640000e-06,2.19980000e-02
-9.77600000e-06,2.19980000e-02
-9.77560000e-06,2.18260000e-02
-9.77520000e-06,2.18260000e-02
-9.77480000e-06,2.18260000e-02
-9.77440000e-06,2.18260000e-02
-9.77400000e-06,2.18260000e-02
-9.77360000e-06,2.16540000e-02
-9.77320000e-06,2.16540000e-02
-9.77280000e-06,2.16540000e-02
-9.77240000e-06,2.18260000e-02
-9.77200000e-06,2.18260000e-02
-9.77160000e-06,2.19980000e-02
-9.77120000e-06,2.19980000e-02
-9.77080000e-06,2.18260000e-02
-9.77040000e-06,2.16540000e-02
-9.77000000e-06,2.16540000e-02
-9.76960000e-06,2.14820000e-02
-9.76920000e-06,2.13100000e-02
-9.76880000e-06,2.13100000e-02
-9.76840000e-06,2.13100000e-02
-9.76800000e-06,2.13100000e-02
-9.76760000e-06,2.13100000e-02
-9.76720000e-06,2.13100000e-02
-9.76680000e-06,2.13100000e-02
-9.76640000e-06,2.13100000e-02
-9.76600000e-06,2.13100000e-02
-9.76560000e-06,2.13100000e-02
-9.76520000e-06,2.13100000e-02
-9.76480000e-06,2.13100000e-02
-9.76440000e-06,2.11380000e-02
-9.76400000e-06,2.11380000e-02
-9.76360000e-06,2.11380000e-02
-9.76320000e-06,2.11380000e-02
-9.76280000e-06,2.11380000e-02
-9.76240000e-06,2.09660000e-02
-9.76200000e-06,2.09660000e-02
-9.76160000e-06,2.09660000e-02
-9.76120000e-06,2.07940000e-02
-9.76080000e-06,2.07940000e-02
-9.76040000e-06,2.06220000e-02
-9.76000000e-06,2.04500000e-02
-9.75960000e-06,2.04500000e-02
-9.75920000e-06,2.04500000e-02
-9.75880000e-06,2.04500000e-02
-9.75840000e-06,2.04500000e-02
-9.75800000e-06,2.04500000e-02
-9.75760000e-06,2.04500000e-02
-9.75720000e-06,2.02780000e-02
-9.75680000e-06,2.01060000e-02
-9.75640000e-06,1.99340000e-02
-9.75600000e-06,1.97620000e-02
-9.75560000e-06,1.95900000e-02
-9.75520000e-06,1.94180000e-02
-9.75480000e-06,1.94180000e-02
-9.75440000e-06,1.94180000e-02
-9.75400000e-06,1.92460000e-02
-9.75360000e-06,1.92460000e-02
-9.75320000e-06,1.90740000e-02
-9.75280000e-06,1.90740000e-02
-9.75240000e-06,1.90740000e-02
-9.75200000e-06,1.90740000e-02
-9.75160000e-06,1.90740000e-02
-9.75120000e-06,1.90740000e-02
-9.75080000e-06,1.89020000e-02
-9.75040000e-06,1.89020000e-02
-9.75000000e-06,1.87300000e-02
-9.74960000e-06,1.85580000e-02
-9.74920000e-06,1.83860000e-02
-9.74880000e-06,1.82140000e-02
-9.74840000e-06,1.82140000e-02
-9.74800000e-06,1.82140000e-02
-9.74760000e-06,1.82140000e-02
-9.74720000e-06,1.82140000e-02
-9.74680000e-06,1.82140000e-02
-9.74640000e-06,1.82140000e-02
-9.74600000e-06,1.80420000e-02
-9.74560000e-06,1.80420000e-02
-9.74520000e-06,1.78700000e-02
-9.74480000e-06,1.76980000e-02
-9.74440000e-06,1.75260000e-02
