data/atom_spectroscopy/pol_000.csv

Model,MSO24
Label,
Waveform Type,ANALOG
Horizontal Units,s
Sample Interval,4.00000000e-08
Record Length,250000
Zero Index,172499.56250000
Vertical Units,V

Labels,
TIME,CH1
-6.89998250e-03,-6.30000000e-03
-6.89994250e-03,-4.30000000e-03
-6.89990250e-03,-3.50000000e-03
-6.89986250e-03,-2.70000000e-03
-6.89982250e-03,-1.90000000e-03
-6.89978250e-03,-1.90000000e-03
-6.89974250e-03,-1.90000000e-03
-6.89970250e-03,-2.30000000e-03
-6.89966250e-03,-1.10000000e-03
-6.89962250e-03,9.00000000e-04
-6.89958250e-03,1.30000000e-03
-6.89954250e-03,-3.00000000e-04
-6.89950250e-03,-2.70000000e-03
-6.89946250e-03,-3.10000000e-03
-6.89942250e-03,-4.30000000e-03
-6.89938250e-03,-4.30000000e-03
-6.89934250e-03,-4.30000000e-03
-6.89930250e-03,-4.70000000e-03
-6.89926250e-03,-3.90000000e-03
-6.89922250e-03,-3.00000000e-04
-6.89918250e-03,1.30000000e-03
-6.89914250e-03,-1.10000000e-03
-6.89910250e-03,-3.10000000e-03
-6.89906250e-03,-4.30000000e-03
-6.89902250e-03,-5.50000000e-03
-6.89898250e-03,-5.90000000e-03
-6.89894250e-03,-3.90000000e-03
-6.89890250e-03,-1.90000000e-03
-6.89886250e-03,-3.90000000e-03
-6.89882250e-03,-1.90000000e-03
-6.89878250e-03,-1.10000000e-03
-6.89874250e-03,1.00000000e-04
-6.89870250e-03,9.00000000e-04
-6.89866250e-03,-3.00000000e-04
-6.89862250e-03,-1.50000000e-03
-6.89858250e-03,-2.70000000e-03
-6.89854250e-03,-5.10000000e-03
-6.89850250e-03,-5.90000000e-03
-6.89846250e-03,-5.10000000e-03
-6.89842250e-03,-4.30000000e-03
-6.89838250e-03,-5.10000000e-03
-6.89834250e-03,-3.90000000e-03
-6.89830250e-03,-1.90000000e-03
-6.89826250e-03,-4.30000000e-03
-6.89822250e-03,-4.30000000e-03
-6.89818250e-03,-4.30000000e-03
-6.89814250e-03,-5.50000000e-03
-6.89810250e-03,-3.10000000e-03
-6.89806250e-03,-3.00000000e-04
-6.89802250e-03,-3.50000000e-03
-6.89798250e-03,-4.30000000e-03
-6.89794250e-03,-3.50000000e-03
-6.89790250e-03,-3.50000000e-03
-6.89786250e-03,-4.70000000e-03
-6.89782250e-03,-5.50000000e-03
-6.89778250e-03,-4.30000000e-03
-6.89774250e-03,-2.70000000e-03
-6.89770250e-03,-2.30000000e-03
-6.89766250e-03,-3.10000000e-03
-6.89762250e-03,-1.90000000e-03
-6.89758250e-03,-3.10000000e-03
-6.89754250e-03,-3.50000000e-03
-6.89750250e-03,-4.30000000e-03
-6.89746250e-03,-1.90000000e-03
-6.89742250e-03,-2.30000000e-03
-6.89738250e-03,-1.90000000e-03
-6.89734250e-03,5.00000000e-04
-6.89730250e-03,-3.00000000e-04
-6.89726250e-03,-2.70000000e-03
-6.89722250e-03,-4.30000000e-03
-6.89718250e-03,-4.30000000e-03
-6.89714250e-03,-3.10000000e-03
-6.89710250e-03,-4.30000000e-03
-6.89706250e-03,-3.10000000e-03
-6.89702250e-03,-2.70000000e-03
-6.89698250e-03,-1.50000000e-03
-6.89694250e-03,-1.90000000e-03
-6.89690250e-03,-2.70000000e-03
-6.89686250e-03,-3.90000000e-03
-6.89682250e-03,-5.10000000e-03
-6.89678250e-03,-4.70000000e-03
-6.89674250e-03,-6.70000000e-03
-6.89670250e-03,-5.10000000e-03
-6.89666250e-03,-2.70000000e-03
-6.89662250e-03,-1.90000000e-03
-6.89658250e-03,-1.50000000e-03
-6.89654250e-03,-1.90000000e-03
-6.89650250e-03,-3.10000000e-03
-6.89646250e-03,-5.10000000e-03
-6.89642250e-03,-5.90000000e-03
-6.89638250e-03,-5.50000000e-03
-6.89634250e-03,-5.10000000e-03
-6.89630250e-03,-3.10000000e-03
-6.89626250e-03,-3.50000000e-03
-6.89622250e-03,-2.70000000e-03
-6.89618250e-03,-3.50000000e-03
-6.89614250e-03,-5.90000000e-03
-6.89610250e-03,-6.70000000e-03
-6.89606250e-03,-5.10000000e-03
-6.89602250e-03,-1.50000000e-03
-6.89598250e-03,1.70000000e-03
-6.89594250e-03,2.90000000e-03
-6.89590250e-03,2.10000000e-03
-6.89586250e-03,9.00000000e-04
-6.89582250e-03,-1.10000000e-03
-6.89578250e-03,-3.90000000e-03
-6.89574250e-03,-3.50000000e-03
-6.89570250e-03,-4.70000000e-03
-6.89566250e-03,-4.30000000e-03
-6.89562250e-03,-4.30000000e-03
-6.89558250e-03,-4.70000000e-03
-6.89554250e-03,-4.30000000e-03
-6.89550250e-03,-3.50000000e-03
-6.89546250e-03,-3.90000000e-03
-6.89542250e-03,-5.50000000e-03
-6.89538250e-03,-3.50000000e-03
-6.89534250e-03,-1.50000000e-03
-6.89530250e-03,-1.90000000e-03
-6.89526250e-03,-3.10000000e-03
-6.89522250e-03,-7.00000000e-04
-6.89518250e-03,-1.90000000e-03
-6.89514250e-03,-2.30000000e-03
-6.89510250e-03,-4.30000000e-03
-6.89506250e-03,-4.70000000e-03
-6.89502250e-03,-5.90000000e-03
-6.89498250e-03,-5.50000000e-03
-6.89494250e-03,-5.10000000e-03
-6.89490250e-03,-2.70000000e-03
-6.89486250e-03,-1.10000000e-03
-6.89482250e-03,-2.30000000e-03
-6.89478250e-03,-2.30000000e-03
-6.89474250e-03,-7.00000000e-04
-6.89470250e-03,-1.50000000e-03
-6.89466250e-03,-2.70000000e-03
-6.89462250e-03,-4.70000000e-03
-6.89458250e-03,-3.90000000e-03
-6.89454250e-03,-2.70000000e-03
-6.89450250e-03,-3.50000000e-03
-6.89446250e-03,-2.70000000e-03
-6.89442250e-03,-1.10000000e-03
-6.89438250e-03,-7.00000000e-04
-6.89434250e-03,-4.30000000e-03
-6.89430250e-03,-4.70000000e-03
-6.89426250e-03,-2.70000000e-03
-6.89422250e-03,-1.10000000e-03
-6.89418250e-03,-1.10000000e-03
-6.89414250e-03,-3.50000000e-03
-6.89410250e-03,-3.10000000e-03
-6.89406250e-03,-5.10000000e-03
-6.89402250e-03,-3.90000000e-03
-6.89398250e-03,-2.70000000e-03
-6.89394250e-03,-1.90000000e-03
-6.89390250e-03,-1.90000000e-03
-6.89386250e-03,-2.30000000e-03
-6.89382250e-03,-1.90000000e-03
-6.89378250e-03,-1.50000000e-03
-6.89374250e-03,-3.00000000e-04
-6.89370250e-03,-7.00000000e-04
-6.89366250e-03,-7.00000000e-04
-6.89362250e-03,-1.90000000e-03
-6.89358250e-03,-4.30000000e-03
-6.89354250e-03,-5.90000000e-03
-6.89350250e-03,-7.10000000e-03
-6.89346250e-03,-7.50000000e-03
-6.89342250e-03,-5.10000000e-03
-6.89338250e-03,-3.10000000e-03
-6.89334250e-03,-3.90000000e-03
-6.89330250e-03,-4.70000000e-03
-6.89326250e-03,-3.90000000e-03
-6.89322250e-03,-4.70000000e-03
-6.89318250e-03,-5.10000000e-03
-6.89314250e-03,-1.50000000e-03
-6.89310250e-03,-3.00000000e-04
-6.89306250e-03,-7.00000000e-04
-6.89302250e-03,-1.90000000e-03
-6.89298250e-03,-7.00000000e-04
-6.89294250e-03,5.00000000e-04
-6.89290250e-03,-3.50000000e-03
-6.89286250e-03,-5.10000000e-03
-6.89282250e-03,-5.10000000e-03
-6.89278250e-03,-2.30000000e-03
-6.89274250e-03,-1.90000000e-03
-6.89270250e-03,-2.30000000e-03
-6.89266250e-03,-1.90000000e-03
-6.89262250e-03,-3.10000000e-03
-6.89258250e-03,-3.10000000e-03
-6.89254250e-03,-3.50000000e-03
-6.89250250e-03,-3.90000000e-03
-6.89246250e-03,-3.50000000e-03
-6.89242250e-03,-3.50000000e-03
-6.89238250e-03,-2.70000000e-03
-6.89234250e-03,-3.50000000e-03
-6.89230250e-03,-3.10000000e-03
-6.89226250e-03,-3.50000000e-03
-6.89222250e-03,-3.10000000e-03
-6.89218250e-03,-4.30000000e-03
-6.89214250e-03,-3.50000000e-03
-6.89210250e-03,-3.10000000e-03
-6.89206250e-03,-1.10000000e-03
-6.89202250e-03,1.00000000e-04
-6.89198250e-03,9.00000000e-04
-6.89194250e-03,-1.50000000e-03
-6.89190250e-03,-3.90000000e-03
-6.89186250e-03,-3.90000000e-03
-6.89182250e-03,-5.90000000e-03
-6.89178250e-03,-4.30000000e-03
-6.89174250e-03,-3.50000000e-03
-6.89170250e-03,-2.30000000e-03
-6.89166250e-03,-7.00000000e-04
-6.89162250e-03,-2.70000000e-03
-6.89158250e-03,-5.50000000e-03
-6.89154250e-03,-5.90000000e-03
-6.89150250e-03,-5.50000000e-03
-6.89146250e-03,-2.70000000e-03
-6.89142250e-03,-3.00000000e-04
-6.89138250e-03,1.70000000e-03
-6.89134250e-03,9.00000000e-04
-6.89130250e-03,-3.00000000e-04
-6.89126250e-03,-2.30000000e-03
-6.89122250e-03,-3.50000000e-03
-6.89118250e-03,-3.50000000e-03
-6.89114250e-03,-3.90000000e-03
-6.89110250e-03,-1.10000000e-03
-6.89106250e-03,-7.00000000e-04
-6.89102250e-03,1.00000000e-04
-6.89098250e-03,1.30000000e-03
-6.89094250e-03,9.00000000e-04
-6.89090250e-03,-1.10000000e-03
-6.89086250e-03,-3.90000000e-03
-6.89082250e-03,-5.50000000e-03
-6.89078250e-03,-5.50000000e-03
-6.89074250e-03,-7.10000000e-03
-6.89070250e-03,-5.90000000e-03
-6.89066250e-03,-4.30000000e-03
-6.89062250e-03,-2.70000000e-03
-6.89058250e-03,-2.70000000e-03
-6.89054250e-03,-2.70000000e-03
-6.89050250e-03,-1.90000000e-03
-6.89046250e-03,-2.70000000e-03
-6.89042250e-03,-3.90000000e-03
-6.89038250e-03,-4.70000000e-03
-6.89034250e-03,-3.50000000e-03
-6.89030250e-03,-3.50000000e-03
-6.89026250e-03,-2.70000000e-03
-6.89022250e-03,-1.10000000e-03
-6.89018250e-03,-2.70000000e-03
-6.89014250e-03,-2.70000000e-03
-6.89010250e-03,-3.10000000e-03
-6.89006250e-03,-3.10000000e-03
-6.89002250e-03,-2.70000000e-03
-6.88998250e-03,-2.70000000e-03
-6.88994250e-03,-3.10000000e-03
-6.88990250e-03,-4.30000000e-03
-6.88986250e-03,-5.90000000e-03
-6.88982250e-03,-5.90000000e-03
-6.88978250e-03,-4.30000000e-03
-6.88974250e-03,-3.50000000e-03
-6.88970250e-03,-2.70000000e-03
-6.88966250e-03,-3.90000000e-03
-6.88962250e-03,-3.90000000e-03
-6.88958250e-03,-3.90000000e-03
-6.88954250e-03,-3.10000000e-03
-6.88950250e-03,-3.10000000e-03
-6.88946250e-03,-3.90000000e-03
-6.88942250e-03,-3.10000000e-03
-6.88938250e-03,-3.90000000e-03
-6.88934250e-03,-5.90000000e-03
-6.88930250e-03,-5.90000000e-03
-6.88926250e-03,-5.10000000e-03
-6.88922250e-03,-5.90000000e-03
-6.88918250e-03,-2.70000000e-03
-6.88914250e-03,-1.10000000e-03
-6.88910250e-03,-3.10000000e-03
-6.88906250e-03,-5.10000000e-03
-6.88902250e-03,-6.70000000e-03
-6.88898250e-03,-7.90000000e-03
-6.88894250e-03,-7.10000000e-03
-6.88890250e-03,-7.90000000e-03
-6.88886250e-03,-7.50000000e-03
-6.88882250e-03,-4.30000000e-03
-6.88878250e-03,-3.50000000e-03
-6.88874250e-03,-3.10000000e-03
-6.88870250e-03,-7.00000000e-04
-6.88866250e-03,-1.50000000e-03
-6.88862250e-03,-2.30000000e-03
-6.88858250e-03,-1.90000000e-03
-6.88854250e-03,-4.70000000e-03
-6.88850250e-03,-5.50000000e-03
-6.88846250e-03,-5.10000000e-03
-6.88842250e-03,-3.10000000e-03
-6.88838250e-03,-4.30000000e-03
-6.88834250e-03,-4.30000000e-03
-6.88830250e-03,-2.30000000e-03
-6.88826250e-03,-1.90000000e-03
-6.88822250e-03,-1.50000000e-03
-6.88818250e-03,9.00000000e-04
-6.88814250e-03,2.10000000e-03
-6.88810250e-03,1.00000000e-04
-6.88806250e-03,-1.10000000e-03
-6.88802250e-03,-1.10000000e-03
-6.88798250e-03,-3.50000000e-03
-6.88794250e-03,-7.10000000e-03
-6.88790250e-03,-8.30000000e-03
-6.88786250e-03,-6.70000000e-03
-6.88782250e-03,-3.90000000e-03
-6.88778250e-03,-3.10000000e-03
-6.88774250e-03,-4.30000000e-03
-6.88770250e-03,-3.50000000e-03
-6.88766250e-03,-2.70000000e-03
-6.88762250e-03,-2.70000000e-03
-6.88758250e-03,-1.90000000e-03
-6.88754250e-03,-1.50000000e-03
-6.88750250e-03,-2.30000000e-03
-6.88746250e-03,-2.30000000e-03
-6.88742250e-03,-4.30000000e-03
-6.88738250e-03,-4.70000000e-03
-6.88734250e-03,-2.70000000e-03
-6.88730250e-03,-7.00000000e-04
-6.88726250e-03,9.00000000e-04
-6.88722250e-03,-3.00000000e-04
-6.88718250e-03,-7.00000000e-04
-6.88714250e-03,-7.00000000e-04
-6.88710250e-03,-2.70000000e-03
-6.88706250e-03,-3.10000000e-03
-6.88702250e-03,-3.10000000e-03
-6.88698250e-03,-5.10000000e-03
-6.88694250e-03,-3.50000000e-03
-6.88690250e-03,-1.10000000e-03
-6.88686250e-03,-7.00000000e-04
-6.88682250e-03,-1.50000000e-03
-6.88678250e-03,-2.30000000e-03
-6.88674250e-03,-4.70000000e-03
-6.88670250e-03,-5.90000000e-03
-6.88666250e-03,-6.70000000e-03
-6.88662250e-03,-7.10000000e-03
-6.88658250e-03,-5.90000000e-03
-6.88654250e-03,-3.10000000e-03
-6.88650250e-03,-1.10000000e-03
-6.88646250e-03,-2.30000000e-03
-6.88642250e-03,-3.10000000e-03
-6.88638250e-03,-5.10000000e-03
-6.88634250e-03,-5.10000000e-03
-6.88630250e-03,-3.10000000e-03
-6.88626250e-03,-2.70000000e-03
-6.88622250e-03,-7.00000000e-04
-6.88618250e-03,-1.50000000e-03
-6.88614250e-03,-1.50000000e-03
-6.88610250e-03,-1.90000000e-03
-6.88606250e-03,-3.90000000e-03
-6.88602250e-03,-5.50000000e-03
-6.88598250e-03,-6.30000000e-03
-6.88594250e-03,-5.10000000e-03
-6.88590250e-03,-4.30000000e-03
-6.88586250e-03,-1.90000000e-03
-6.88582250e-03,-7.00000000e-04
-6.88578250e-03,-3.00000000e-04
-6.88574250e-03,5.00000000e-04
-6.88570250e-03,-1.10000000e-03
-6.88566250e-03,-1.10000000e-03
-6.88562250e-03,5.00000000e-04
-6.88558250e-03,-1.90000000e-03
-6.88554250e-03,-3.10000000e-03
-6.88550250e-03,-4.70000000e-03
-6.88546250e-03,-5.10000000e-03
-6.88542250e-03,-4.70000000e-03
-6.88538250e-03,-4.30000000e-03
-6.88534250e-03,-3.90000000e-03
-6.88530250e-03,-5.10000000e-03
-6.88526250e-03,-2.30000000e-03
-6.88522250e-03,-2.30000000e-03
-6.88518250e-03,-2.70000000e-03
-6.88514250e-03,-3.90000000e-03
-6.88510250e-03,-3.50000000e-03
-6.88506250e-03,-2.30000000e-03
-6.88502250e-03,-1.90000000e-03
-6.88498250e-03,-1.50000000e-03
-6.88494250e-03,-1.50000000e-03
-6.88490250e-03,-7.00000000e-04
-6.88486250e-03,9.00000000e-04
-6.88482250e-03,-1.50000000e-03
-6.88478250e-03,-3.10000000e-03
-6.88474250e-03,-1.90000000e-03
-6.88470250e-03,-1.90000000e-03
-6.88466250e-03,-2.30000000e-03
-6.88462250e-03,-2.30000000e-03
-6.88458250e-03,-2.70000000e-03
-6.88454250e-03,-2.70000000e-03
-6.88450250e-03,-3.90000000e-03
-6.88446250e-03,-3.90000000e-03
-6.88442250e-03,-5.10000000e-03
-6.88438250e-03,-4.70000000e-03
-6.88434250e-03,-4.30000000e-03
-6.88430250e-03,-3.10000000e-03
-6.88426250e-03,-1.50000000e-03
-6.88422250e-03,1.00000000e-04
-6.88418250e-03,-7.00000000e-04
-6.88414250e-03,-1.50000000e-03
-6.88410250e-03,-1.10000000e-03
-6.88406250e-03,-1.10000000e-03
-6.88402250e-03,-4.70000000e-03
-6.88398250e-03,-3.50000000e-03
-6.88394250e-03,-3.50000000e-03
-6.88390250e-03,-3.10000000e-03
-6.88386250e-03,-3.10000000e-03
-6.88382250e-03,-3.50000000e-03
-6.88378250e-03,-1.50000000e-03
-6.88374250e-03,-2.70000000e-03
-6.88370250e-03,-5.10000000e-03
-6.88366250e-03,-3.50000000e-03
-6.88362250e-03,-2.70000000e-03
-6.88358250e-03,-7.00000000e-04
-6.88354250e-03,1.00000000e-04
-6.88350250e-03,-1.10000000e-03
-6.88346250e-03,-4.70000000e-03
-6.88342250e-03,-6.30000000e-03
-6.88338250e-03,-2.30000000e-03
-6.88334250e-03,-1.50000000e-03
-6.88330250e-03,-3.50000000e-03
-6.88326250e-03,-4.70000000e-03
-6.88322250e-03,-5.10000000e-03
-6.88318250e-03,-3.10000000e-03
-6.88314250e-03,-2.30000000e-03
-6.88310250e-03,-1.50000000e-03
-6.88306250e-03,-2.70000000e-03
-6.88302250e-03,-5.50000000e-03
-6.88298250e-03,-5.10000000e-03
-6.88294250e-03,-3.10000000e-03
-6.88290250e-03,-1.10000000e-03
-6.88286250e-03,-1.10000000e-03
-6.88282250e-03,-2.70000000e-03
-6.88278250e-03,-2.70000000e-03
-6.88274250e-03,-1.90000000e-03
-6.88270250e-03,-2.30000000e-03
-6.88266250e-03,-3.50000000e-03
-6.88262250e-03,-3.90000000e-03
-6.88258250e-03,-3.90000000e-03
-6.88254250e-03,-4.30000000e-03
-6.88250250e-03,-5.50000000e-03
-6.88246250e-03,-5.10000000e-03
-6.88242250e-03,-5.10000000e-03
-6.88238250e-03,-2.70000000e-03
-6.88234250e-03,-1.90000000e-03
-6.88230250e-03,-1.50000000e-03
-6.88226250e-03,5.00000000e-04
-6.88222250e-03,-3.00000000e-04
-6.88218250e-03,-1.90000000e-03
-6.88214250e-03,-3.10000000e-03
-6.88210250e-03,-4.70000000e-03
-6.88206250e-03,-5.90000000e-03
-6.88202250e-03,-5.50000000e-03
-6.88198250e-03,-5.10000000e-03
-6.88194250e-03,-1.90000000e-03
-6.88190250e-03,1.30000000e-03
-6.88186250e-03,2.50000000e-03
-6.88182250e-03,-3.00000000e-04
-6.88178250e-03,-1.10000000e-03
-6.88174250e-03,-2.30000000e-03
-6.88170250e-03,-5.50000000e-03
-6.88166250e-03,-6.30000000e-03
-6.88162250e-03,-3.50000000e-03
-6.88158250e-03,-1.50000000e-03
-6.88154250e-03,-1.90000000e-03
-6.88150250e-03,-3.50000000e-03
-6.88146250e-03,-5.10000000e-03
-6.88142250e-03,-4.70000000e-03
-6.88138250e-03,-4.70000000e-03
-6.88134250e-03,-3.10000000e-03
-6.88130250e-03,-1.90000000e-03
-6.88126250e-03,-1.10000000e-03
-6.88122250e-03,-1.10000000e-03
-6.88118250e-03,-3.90000000e-03
-6.88114250e-03,-4.30000000e-03
-6.88110250e-03,-5.10000000e-03
-6.88106250e-03,-3.10000000e-03
-6.88102250e-03,-3.50000000e-03
-6.88098250e-03,-3.90000000e-03
-6.88094250e-03,-4.70000000e-03
-6.88090250e-03,-2.70000000e-03
-6.88086250e-03,-2.70000000e-03
-6.88082250e-03,-4.30000000e-03
-6.88078250e-03,-4.30000000e-03
-6.88074250e-03,-1.50000000e-03
-6.88070250e-03,-7.00000000e-04
-6.88066250e-03,-7.00000000e-04
-6.88062250e-03,-1.50000000e-03
-6.88058250e-03,-1.90000000e-03
-6.88054250e-03,-2.30000000e-03
-6.88050250e-03,-2.70000000e-03
-6.88046250e-03,-3.10000000e-03
-6.88042250e-03,-3.10000000e-03
-6.88038250e-03,-3.10000000e-03
-6.88034250e-03,-1.90000000e-03
-6.88030250e-03,-2.70000000e-03
-6.88026250e-03,-2.70000000e-03
-6.88022250e-03,-2.70000000e-03
-6.88018250e-03,-3.50000000e-03
-6.88014250e-03,-4.70000000e-03
-6.88010250e-03,-5.50000000e-03
-6.88006250e-03,-4.30000000e-03
-6.88002250e-03,-3.90000000e-03
-6.87998250e-03,-5.10000000e-03
-6.87994250e-03,-5.50000000e-03
-6.87990250e-03,-4.70000000e-03
-6.87986250e-03,-4.30000000e-03
-6.87982250e-03,-1.90000000e-03
-6.87978250e-03,1.00000000e-04
-6.87974250e-03,-1.10000000e-03
-6.87970250e-03,-7.00000000e-04
-6.87966250e-03,-1.50000000e-03
-6.87962250e-03,-2.30000000e-03
-6.87958250e-03,-6.30000000e-03
-6.87954250e-03,-8.30000000e-03
-6.87950250e-03,-7.10000000e-03
-6.87946250e-03,-6.30000000e-03
-6.87942250e-03,-4.30000000e-03
-6.87938250e-03,-3.10000000e-03
-6.87934250e-03,-3.50000000e-03
-6.87930250e-03,-3.50000000e-03
-6.87926250e-03,-3.90000000e-03
-6.87922250e-03,-3.50000000e-03
-6.87918250e-03,-1.90000000e-03
-6.87914250e-03,-1.90000000e-03
-6.87910250e-03,-2.30000000e-03
-6.87906250e-03,-1.50000000e-03
-6.87902250e-03,5.00000000e-04
-6.87898250e-03,-1.90000000e-03
-6.87894250e-03,-3.10000000e-03
-6.87890250e-03,-2.30000000e-03
-6.87886250e-03,-2.30000000e-03
-6.87882250e-03,-1.10000000e-03
-6.87878250e-03,-1.50000000e-03
-6.87874250e-03,-3.50000000e-03
-6.87870250e-03,-5.10000000e-03
-6.87866250e-03,-3.90000000e-03
-6.87862250e-03,-2.70000000e-03
-6.87858250e-03,-1.50000000e-03
-6.87854250e-03,-1.90000000e-03
-6.87850250e-03,-2.30000000e-03
-6.87846250e-03,-1.50000000e-03
-6.87842250e-03,-1.10000000e-03
-6.87838250e-03,-2.70000000e-03
-6.87834250e-03,-5.10000000e-03
-6.87830250e-03,-3.90000000e-03
-6.87826250e-03,-2.30000000e-03
-6.87822250e-03,-1.50000000e-03
-6.87818250e-03,-1.50000000e-03
-6.87814250e-03,-2.70000000e-03
-6.87810250e-03,-6.30000000e-03
-6.87806250e-03,-7.50000000e-03
-6.87802250e-03,-5.10000000e-03
-6.87798250e-03,-3.90000000e-03
-6.87794250e-03,-1.50000000e-03
-6.87790250e-03,-7.00000000e-04
-6.87786250e-03,5.00000000e-04
-6.87782250e-03,-7.00000000e-04
-6.87778250e-03,-2.70000000e-03
-6.87774250e-03,-3.10000000e-03
-6.87770250e-03,-2.70000000e-03
-6.87766250e-03,-1.10000000e-03
-6.87762250e-03,-3.00000000e-04
-6.87758250e-03,-1.90000000e-03
-6.87754250e-03,-3.10000000e-03
-6.87750250e-03,-3.50000000e-03
-6.87746250e-03,-4.30000000e-03
-6.87742250e-03,-4.30000000e-03
-6.87738250e-03,-4.70000000e-03
-6.87734250e-03,-3.90000000e-03
-6.87730250e-03,-3.10000000e-03
-6.87726250e-03,-1.50000000e-03
-6.87722250e-03,1.00000000e-04
-6.87718250e-03,5.00000000e-04
-6.87714250e-03,-1.90000000e-03
-6.87710250e-03,-2.30000000e-03
-6.87706250e-03,-2.70000000e-03
-6.87702250e-03,-5.10000000e-03
-6.87698250e-03,-5.90000000e-03
-6.87694250e-03,-6.70000000e-03
-6.87690250e-03,-5.90000000e-03
-6.87686250e-03,-4.70000000e-03
-6.87682250e-03,-3.10000000e-03
-6.87678250e-03,-2.70000000e-03
-6.87674250e-03,-2.30000000e-03
-6.87670250e-03,-2.30000000e-03
-6.87666250e-03,-3.10000000e-03
-6.87662250e-03,-3.10000000e-03
-6.87658250e-03,-5.10000000e-03
-6.87654250e-03,-4.30000000e-03
-6.87650250e-03,-3.50000000e-03
-6.87646250e-03,-3.90000000e-03
-6.87642250e-03,-3.50000000e-03
-6.87638250e-03,-4.30000000e-03
-6.87634250e-03,-5.50000000e-03
-6.87630250e-03,-3.90000000e-03
-6.87626250e-03,-2.70000000e-03
-6.87622250e-03,-3.10000000e-03
-6.87618250e-03,-1.90000000e-03
-6.87614250e-03,9.00000000e-04
-6.87610250e-03,1.00000000e-04
-6.87606250e-03,-7.00000000e-04
-6.87602250e-03,-3.10000000e-03
-6.87598250e-03,-3.90000000e-03
-6.87594250e-03,-6.70000000e-03
-6.87590250e-03,-4.70000000e-03
-6.87586250e-03,-7.00000000e-04
-6.87582250e-03,-2.70000000e-03
-6.87578250e-03,-3.90000000e-03
-6.87574250e-03,-1.90000000e-03
-6.87570250e-03,-7.00000000e-04
-6.87566250e-03,-3.00000000e-04
-6.87562250e-03,1.00000000e-04
-6.87558250e-03,-1.90000000e-03
-6.87554250e-03,-1.50000000e-03
-6.87550250e-03,-3.10000000e-03
-6.87546250e-03,-4.30000000e-03
-6.87542250e-03,-3.50000000e-03
-6.87538250e-03,-3.10000000e-03
-6.87534250e-03,-3.50000000e-03
-6.87530250e-03,-3.50000000e-03
-6.87526250e-03,-4.30000000e-03
-6.87522250e-03,-3.10000000e-03
